Misturando códigos R e Python
…
Carrega o objeto gerado pelo feather no R, usando o pacote feather:

library(feather)
## Importa objeto gerado pelo Python
gap2 <- read_feather("gap2.feather")
str(gap2)

## Classes 'tbl_df', 'tbl' and 'data.frame':    1704 obs. of  2 variables:
##  $ pibPercap: num  779 821 853 836 740 ...
##  $ expVida  : num  28.8 30.3 32 34 36.1 ...

gap2

## # A tibble: 1,704 x 2
##    pibPercap expVida
##        <dbl>   <dbl>
##  1      779.    28.8
##  2      821.    30.3
##  3      853.    32.0
##  4      836.    34.0
##  5      740.    36.1
##  6      786.    38.4
##  7      978.    39.9
##  8      852.    40.8
##  9      649.    41.7
## 10      635.    41.8
## # ... with 1,694 more rows
…
